Project #1 - Running Man, Weather Man
…
tidy_plot_1<-cor(full_plot1)%>%as.data.frame%>%  rownames_to_column%>%  pivot_longer(-1,names_to="colname",values_to="correlation")
tidy_plot_1

## # A tibble: 81 x 3
##    rowname     colname       correlation
##    <chr>       <chr>               <dbl>
##  1 Activity.ID Activity.ID       1      
##  2 Activity.ID Year              0.932  
##  3 Activity.ID Month             0.0981 
##  4 Activity.ID Day               0.00569
##  5 Activity.ID PRCP             -0.0212 
##  6 Activity.ID TMAX             -0.0723 
##  7 Activity.ID TMIN             -0.0916 
##  8 Activity.ID Distance_mi       0.00594
##  9 Activity.ID Elps_Time_hrs     0.0234 
## 10 Year        Activity.ID       0.932  
## # … with 71 more rows
…
